{

    "create_tb":"create table if not exists {} ( {} ) ",
    "select":"select * from {}",
    "insert":"insert into {} ( {} ) values ( {} )",
    "update":"update {} set {} where {}",
    "delete":"delete from {} where {} ",
    "count":"select count(*) from {}",
    "datos_arb": " id INTEGER PRIMARY KEY AUTOINCREMENT, nombre TEXT NOT NULL, altura INTEGER NOT NULL, ancho INTEGER NOT NULL, tiempo_vida INTEGER NOT NULL, estaExtinto BOOLEAN NOT NULL",
    "datos_hij": " color_tronco TEXT, color_hojas TEXT, tipo_zona TEXT, ejemplares INTEGER, tieneFrutas BOOLEAN, tipo_corteza TEXT",
    "carga_arb": " id, nombre, altura , ancho , tiempo_vida,  estaExtinto",
    "carga_hij": " color_tronco, color_hojas, tipo_zona, ejemplares, tieneFrutas, tipo_corteza"

}
